Matrice de adiacenta:
0 1 1 0 0 0 
1 0 0 1 0 0 
1 0 0 0 1 1 
0 1 0 0 0 0 
0 0 1 0 0 1 
0 0 1 0 1 0 

Tabele de rutare:
0:	 -1 1 2 1 2 2
1:   0 -1 0 3 0 0
2:   0 0 -1 0 4 5
3:   1 1 1 -1 1 1
4:   2 2 2 2 -1 2
5:   2 2 2 2 2 -1
